Project 1: Exploratory Data Analysis
…
# Arrange
data %>% arrange(sleep)

## # A tibble: 112 x 6
##    ID      `Start Day`   Day sleep glucose activity
##    <chr>   <chr>       <dbl> <dbl>   <dbl>    <dbl>
##  1 LL1-017 Sat             5   10     72.4     326.
##  2 LL1-061 Fri             2  217     92.7    1074.
##  3 LL1-215 Sat             7  224.    69.1     439 
##  4 LL1-061 Wed             7  226.    91.4    1064.
##  5 LL1-061 Thu             1  245     95.2    1240.
##  6 LL1-004 Wed             7  248.    72.9    1076.
##  7 LL1-004 Mon             5  251     74.1    1145 
##  8 LL1-040 Wed             6  254.    98.8     949 
##  9 LL1-004 Thu             1  262.    81.3    1097 
## 10 LL1-066 Fri             2  265     71.9    1070.
## # … with 102 more rows

data %>% arrange(glucose)

## # A tibble: 112 x 6
##    ID      `Start Day`   Day sleep glucose activity
##    <chr>   <chr>       <dbl> <dbl>   <dbl>    <dbl>
##  1 LL1-006 Sat             2  435     56.6     958 
##  2 LL1-072 Sun             4  585     56.7    1030 
##  3 LL1-072 Mon             5  367     57.1     849 
##  4 LL1-006 Fri             1  327     60.8    1093 
##  5 LL1-072 Fri             2  630.    61.0    1101 
##  6 LL1-017 Tue             1  475     61.3     884.
##  7 LL1-072 Wed             7  565     61.4     891 
##  8 LL1-019 Sun             3  406.    61.5     820.
##  9 LL1-031 Tue             6  382     62.2     977 
## 10 LL1-072 Sat             3  340.    62.2     825 
## # … with 102 more rows

data %>% arrange(activity)

## # A tibble: 112 x 6
##    ID      `Start Day`   Day sleep glucose activity
##    <chr>   <chr>       <dbl> <dbl>   <dbl>    <dbl>
##  1 LL1-017 Sat             5   10     72.4     326.
##  2 LL1-215 Tue             3  569    100.      378.
##  3 LL1-215 Sat             7  224.    69.1     439 
##  4 LL1-215 Wed             4  824.   102.      592.
##  5 LL1-015 Sun             4  354     69.6     646.
##  6 LL1-072 Thurs           1  464     67.6     662 
##  7 LL1-015 Sat             3  560     72.9     768.
##  8 LL1-205 Thu             6  630     67.1     774.
##  9 LL1-205 Tue             4  486.    71.4     791 
## 10 LL1-006 Tue             5  591     67.5     805 
## # … with 102 more rows
…
